^C:\USERS\ACER ASPIRE E5-571G\DOCUMENTS\VISUAL STUDIO 2015\PROJECTS\ПРОЕКТ17\ПРОЕКТ17\SOURCE.CPP
/c /ZI /nologo /W3 /WX- /sdl /Od /Oy- /D _UNICODE /D UNICODE /Gm /EHsc /RTC1 /MDd /GS /fp:precise /Zc:wchar_t /Zc:forScope /Zc:inline /Fo"DEBUG\\" /Fd"DEBUG\VC140.PDB" /Gd /TP /analyze- C:\USERS\ACER ASPIRE E5-571G\DOCUMENTS\VISUAL STUDIO 2015\PROJECTS\ПРОЕКТ17\ПРОЕКТ17\SOURCE.CPP
^C:\USERS\ACER ASPIRE E5-571G\DOCUMENTS\VISUAL STUDIO 2015\PROJECTS\ВЫЧИСЛЕНИЕ С ТОЧНОСТЬЮ\ПРОЕКТ17\SOURCE.CPP
/c /ZI /nologo /W3 /WX- /sdl /Od /Oy- /D _UNICODE /D UNICODE /Gm /EHsc /RTC1 /MDd /GS /fp:precise /Zc:wchar_t /Zc:forScope /Zc:inline /Fo"DEBUG\\" /Fd"DEBUG\VC140.PDB" /Gd /TP /analyze- C:\USERS\ACER ASPIRE E5-571G\DOCUMENTS\VISUAL STUDIO 2015\PROJECTS\ВЫЧИСЛЕНИЕ С ТОЧНОСТЬЮ\ПРОЕКТ17\SOURCE.CPP
