^C:\USERS\ACER ASPIRE E5-571G\DOCUMENTS\VISUAL STUDIO 2015\PROJECTS\ВЫЧИСЛЕНИЕ С ТОЧНОСТЬЮ\ПРОЕКТ17\DEBUG\SOURCE.OBJ
C:\USERS\ACER ASPIRE E5-571G\DOCUMENTS\VISUAL STUDIO 2015\PROJECTS\вычисление с точностью\DEBUG\Проект17.ILK
C:\USERS\ACER ASPIRE E5-571G\DOCUMENTS\VISUAL STUDIO 2015\PROJECTS\вычисление с точностью\DEBUG\Проект17.EXE
C:\USERS\ACER ASPIRE E5-571G\DOCUMENTS\VISUAL STUDIO 2015\PROJECTS\ВЫЧИСЛЕНИЕ С ТОЧНОСТЬЮ\DEBUG\ПРОЕКТ17.PDB
